…
Getting there, but not quite done. Our first row is being interpreted as column names.  The documentation also notes that certain values are used to indicate missing data, which we would be better off converting to explicitly missing so we don't get confused.

Seems like we need a more flexible way to load in the data to avoid further suffering. Let's try `readr::read_table` from `tidyverse` 


```
## # A tibble: 809 × 8
##     year month decimal_date average interpolated trend stdev_days
##    <int> <int>        <dbl>   <dbl>        <dbl> <int>      <dbl>
##  1  1958     3        1958.    316.         314.    NA         NA
##  2  1958     4        1958.    317.         315.    NA         NA
##  3  1958     5        1958.    318.         315.    NA         NA
##  4  1958     6        1958.    317.         315.    NA         NA
##  5  1958     7        1959.    316.         315.    NA         NA
##  6  1958     8        1959.    315.         316.    NA         NA
##  7  1958     9        1959.    313.         316.    NA         NA
##  8  1958    10        1959.    312.         315.    NA         NA
##  9  1958    11        1959.    313.         315.    NA         NA
## 10  1958    12        1959.    315.         315.    NA         NA
## # ℹ 799 more rows
## # ℹ 1 more variable: uncertainty_average <dbl>
```
…
ANSWER: ...

-1d.  What is the resolution of the data?
ANSWER: ...

-1e. Are their missing values? How should they be handled?
ANSWER: ... 

#### Question 2:

- 2a: Construct the necessary R code to import and prepare for manipulation the [following data set](http://climate.nasa.gov/system/internal_resources/details/original/647_Global_Temperature_Data_File.txt) You may wish to re-label the columns to something easier to read/understand. 


```
## # A tibble: 145 × 3
##     Year Annual_Mean `5-year_Mean`
##    <int>       <dbl>         <dbl>
##  1  1880       -0.17         -0.1 
##  2  1881       -0.09         -0.13
##  3  1882       -0.11         -0.17
##  4  1883       -0.17         -0.2 
##  5  1884       -0.28         -0.24
##  6  1885       -0.33         -0.26
##  7  1886       -0.31         -0.27
##  8  1887       -0.36         -0.27
##  9  1888       -0.18         -0.27
## 10  1889       -0.11         -0.26
## # ℹ 135 more rows
```
…
